{
    "status": "success",
    "message": "search done successfully!",
    "data": {
        "users": [
            {
                "user_id": 86,
                "username": "artistDemo",
                "firstname": "undefined",
                "lastname": "demo",
                "nationality": "demo"
            },
            {
                "user_id": 117,
                "username": "artistDemo3",
                "firstname": "artistDemo3",
                "lastname": "artistDemo3",
                "nationality": "US"
            },
            {
                "user_id": 122,
                "username": "artistDemo4",
                "firstname": "undefined",
                "lastname": "demo",
                "nationality": "US"
            },
            {
                "user_id": 127,
                "username": "artistDemo5",
                "firstname": "undefined",
                "lastname": "demo",
                "nationality": "US"
            },
            {
                "user_id": 128,
                "username": "artistDemo6",
                "firstname": "undefined",
                "lastname": "demo",
                "nationality": "US"
            },
            {
                "user_id": 134,
                "username": "artistTest",
                "firstname": "undefined",
                "lastname": "demo",
                "nationality": "demo"
            }
        ],
        "tracks": [
            {
                "track_id": 28,
                "track_title": "albumDemo1",
                "genre": "",
                "track_duration": 120,
                "album_title": "albumDemo1",
                "album_id": 25,
                "artsit_id": 86,
                "artist_name": "artistic_nameDemo1"
            },
            {
                "track_id": 48,
                "track_title": "trackDemo16",
                "genre": "genre1",
                "track_duration": 126,
                "album_title": "albumDemo1",
                "album_id": 25,
                "artsit_id": 86,
                "artist_name": "artistic_nameDemo1"
            },
            {
                "track_id": 49,
                "track_title": "trackDemo17",
                "genre": "genre1",
                "track_duration": 126,
                "album_title": "albumDemo1",
                "album_id": 25,
                "artsit_id": 86,
                "artist_name": "artistic_nameDemo1"
            },
            {
                "track_id": 52,
                "track_title": "trackDemo18",
                "genre": "genre2",
                "track_duration": 150,
                "album_title": "albumDemo1",
                "album_id": 25,
                "artsit_id": 86,
                "artist_name": "artistic_nameDemo1"
            },
            {
                "track_id": 53,
                "track_title": "trackDemo19",
                "genre": "genre2",
                "track_duration": 150,
                "album_title": "albumDemo1",
                "album_id": 25,
                "artsit_id": 86,
                "artist_name": "artistic_nameDemo1"
            },
            {
                "track_id": 64,
                "track_title": "trackDemo20",
                "genre": "genre1",
                "track_duration": 120,
                "album_title": "albumDemo1",
                "album_id": 25,
                "artsit_id": 86,
                "artist_name": "artistic_nameDemo1"
            },
            {
                "track_id": 65,
                "track_title": "trackDemo21",
                "genre": "genre1",
                "track_duration": 120,
                "album_title": "albumDemo1",
                "album_id": 25,
                "artsit_id": 86,
                "artist_name": "artistic_nameDemo1"
            },
            {
                "track_id": 43,
                "track_title": "trackDemo2",
                "genre": "",
                "track_duration": 120,
                "album_title": "albumDemo2",
                "album_id": 36,
                "artsit_id": 86,
                "artist_name": "artistic_nameDemo1"
            },
            {
                "track_id": 44,
                "track_title": "trackDemo1",
                "genre": "",
                "track_duration": 120,
                "album_title": "albumDemo2",
                "album_id": 36,
                "artsit_id": 86,
                "artist_name": "artistic_nameDemo1"
            },
            {
                "track_id": 46,
                "track_title": "trackDemo5",
                "genre": "",
                "track_duration": 120,
                "album_title": "albumDemo2",
                "album_id": 36,
                "artsit_id": 86,
                "artist_name": "artistic_nameDemo1"
            },
            {
                "track_id": 47,
                "track_title": "trackDemo6",
                "genre": "",
                "track_duration": 120,
                "album_title": "albumDemo2",
                "album_id": 36,
                "artsit_id": 86,
                "artist_name": "artistic_nameDemo1"
            },
            {
                "track_id": 69,
                "track_title": "trackDemo9",
                "genre": "",
                "track_duration": 120,
                "album_title": "albumDemo11",
                "album_id": 46,
                "artsit_id": 86,
                "artist_name": "artistic_nameDemo1"
            },
            {
                "track_id": 70,
                "track_title": "trackDemo12",
                "genre": "",
                "track_duration": 125,
                "album_title": "albumDemo11",
                "album_id": 46,
                "artsit_id": 86,
                "artist_name": "artistic_nameDemo1"
            },
            {
                "track_id": 71,
                "track_title": "albumDemo12",
                "genre": "",
                "track_duration": 120,
                "album_title": "albumDemo12",
                "album_id": 47,
                "artsit_id": 86,
                "artist_name": "artistic_nameDemo1"
            },
            {
                "track_id": 76,
                "track_title": "trackDemo13",
                "genre": "",
                "track_duration": 120,
                "album_title": "albumDemo15",
                "album_id": 52,
                "artsit_id": 86,
                "artist_name": "artistic_nameDemo1"
            },
            {
                "track_id": 78,
                "track_title": "trackTest1",
                "genre": "",
                "track_duration": 120,
                "album_title": "albumTest",
                "album_id": 53,
                "artsit_id": 134,
                "artist_name": "artistic_nameDemo2"
            },
            {
                "track_id": 79,
                "track_title": "trackTest2",
                "genre": "",
                "track_duration": 120,
                "album_title": "albumTest",
                "album_id": 53,
                "artsit_id": 134,
                "artist_name": "artistic_nameDemo2"
            },
            {
                "track_id": 56,
                "track_title": "trackDemo3",
                "genre": "",
                "track_duration": 120,
                "album_title": "albumDemo4",
                "album_id": 40,
                "artsit_id": 122,
                "artist_name": "artistic_nameDemo4"
            },
            {
                "track_id": 57,
                "track_title": "trackDemo4",
                "genre": "",
                "track_duration": 120,
                "album_title": "albumDemo4",
                "album_id": 40,
                "artsit_id": 122,
                "artist_name": "artistic_nameDemo4"
            },
            {
                "track_id": 60,
                "track_title": "trackDemo7",
                "genre": "",
                "track_duration": 120,
                "album_title": "albumDemo6",
                "album_id": 43,
                "artsit_id": 122,
                "artist_name": "artistic_nameDemo4"
            },
            {
                "track_id": 61,
                "track_title": "trackDemo8",
                "genre": "",
                "track_duration": 120,
                "album_title": "albumDemo6",
                "album_id": 43,
                "artsit_id": 122,
                "artist_name": "artistic_nameDemo4"
            },
            {
                "track_id": 66,
                "track_title": "trackDemo10",
                "genre": "",
                "track_duration": 120,
                "album_title": "albumDemo8",
                "album_id": 44,
                "artsit_id": 127,
                "artist_name": "artistic_nameDemo5"
            },
            {
                "track_id": 67,
                "track_title": "trackDemo11",
                "genre": "",
                "track_duration": 130,
                "album_title": "albumDemo8",
                "album_id": 44,
                "artsit_id": 127,
                "artist_name": "artistic_nameDemo5"
            }
        ],
        "albums": [
            {
                "album_id": 25,
                "album_title": "albumDemo1",
                "artist_id": 86,
                "artist_name": "artistic_nameDemo1"
            },
            {
                "album_id": 36,
                "album_title": "albumDemo2",
                "artist_id": 86,
                "artist_name": "artistic_nameDemo1"
            },
            {
                "album_id": 46,
                "album_title": "albumDemo11",
                "artist_id": 86,
                "artist_name": "artistic_nameDemo1"
            },
            {
                "album_id": 47,
                "album_title": "albumDemo12",
                "artist_id": 86,
                "artist_name": "artistic_nameDemo1"
            },
            {
                "album_id": 48,
                "album_title": "albumDemo13",
                "artist_id": 86,
                "artist_name": "artistic_nameDemo1"
            },
            {
                "album_id": 50,
                "album_title": "albumDemo14",
                "artist_id": 86,
                "artist_name": "artistic_nameDemo1"
            },
            {
                "album_id": 52,
                "album_title": "albumDemo15",
                "artist_id": 86,
                "artist_name": "artistic_nameDemo1"
            },
            {
                "album_id": 53,
                "album_title": "albumTest",
                "artist_id": 134,
                "artist_name": "artistic_nameDemo2"
            },
            {
                "album_id": 38,
                "album_title": "albumDemo3",
                "artist_id": 122,
                "artist_name": "artistic_nameDemo4"
            },
            {
                "album_id": 40,
                "album_title": "albumDemo4",
                "artist_id": 122,
                "artist_name": "artistic_nameDemo4"
            },
            {
                "album_id": 41,
                "album_title": "albumDemo5",
                "artist_id": 122,
                "artist_name": "artistic_nameDemo4"
            },
            {
                "album_id": 43,
                "album_title": "albumDemo6",
                "artist_id": 122,
                "artist_name": "artistic_nameDemo4"
            },
            {
                "album_id": 44,
                "album_title": "albumDemo8",
                "artist_id": 127,
                "artist_name": "artistic_nameDemo5"
            }
        ],
        "playlists": [
            {
                "playlist_id": 1,
                "playlist_title": "playlistdemo",
                "user_id": 84,
                "username": "listenerDemo"
            },
            {
                "playlist_id": 2,
                "playlist_title": "playlistdemo2",
                "user_id": 84,
                "username": "listenerDemo"
            },
            {
                "playlist_id": 3,
                "playlist_title": "playlistdemo3",
                "user_id": 84,
                "username": "listenerDemo"
            },
            {
                "playlist_id": 9,
                "playlist_title": "likedShared",
                "user_id": 84,
                "username": "listenerDemo"
            },
            {
                "playlist_id": 28,
                "playlist_title": "likedShared",
                "user_id": 84,
                "username": "listenerDemo"
            },
            {
                "playlist_id": 30,
                "playlist_title": "playlist18",
                "user_id": 84,
                "username": "listenerDemo"
            },
            {
                "playlist_id": 33,
                "playlist_title": "playlist21",
                "user_id": 84,
                "username": "listenerDemo"
            },
            {
                "playlist_id": 22,
                "playlist_title": "tplaylist12",
                "user_id": 131,
                "username": "listenerDemo12"
            },
            {
                "playlist_id": 23,
                "playlist_title": "playlist13",
                "user_id": 131,
                "username": "listenerDemo12"
            },
            {
                "playlist_id": 24,
                "playlist_title": "playlist14",
                "user_id": 131,
                "username": "listenerDemo12"
            },
            {
                "playlist_id": 25,
                "playlist_title": "playlist15",
                "user_id": 131,
                "username": "listenerDemo12"
            },
            {
                "playlist_id": 26,
                "playlist_title": "playlist16",
                "user_id": 131,
                "username": "listenerDemo12"
            },
            {
                "playlist_id": 27,
                "playlist_title": "playlist17",
                "user_id": 131,
                "username": "listenerDemo12"
            },
            {
                "playlist_id": 29,
                "playlist_title": "playlist17",
                "user_id": 132,
                "username": "listenerDemo13"
            },
            {
                "playlist_id": 30,
                "playlist_title": "playlist18",
                "user_id": 132,
                "username": "listenerDemo13"
            },
            {
                "playlist_id": 31,
                "playlist_title": "playlist19",
                "user_id": 132,
                "username": "listenerDemo13"
            },
            {
                "playlist_id": 32,
                "playlist_title": "playlist20",
                "user_id": 132,
                "username": "listenerDemo13"
            },
            {
                "playlist_id": 33,
                "playlist_title": "playlist21",
                "user_id": 132,
                "username": "listenerDemo13"
            },
            {
                "playlist_id": 34,
                "playlist_title": "playlist22",
                "user_id": 132,
                "username": "listenerDemo13"
            }
        ]
    }
}